# Fdb version 3
["pdflatex"] 1513958648 "presentation_1.tex" "presentation_1.pdf" "presentation_1" 1513958648
  "presentation_1.aux" 1513958648 8 a94a2480d3289e625eea47cd1b285758 ""
  "presentation_1.tex" 1513958603 5210 84c7a49e1670faf4783f657cfe302337 ""
  (generated)
  "presentation_1.pdf"
  "presentation_1.log"
