\beamer@endinputifotherversion {3.36pt}
\beamer@sectionintoc {1}{Introducere}{3}{0}{1}
\beamer@subsectionintoc {1}{1}{Articolul}{3}{0}{1}
\beamer@subsectionintoc {1}{2}{Ce este un senzor ?}{4}{0}{1}
\beamer@subsectionintoc {1}{3}{Senzor}{5}{0}{1}
\beamer@sectionintoc {2}{Algoritmi}{7}{0}{2}
\beamer@subsectionintoc {2}{1}{Prezentare algoritmi}{7}{0}{2}
\beamer@sectionintoc {3}{Concluzii}{11}{0}{3}
