\relax 
\providecommand\hyper@newdestlabel[2]{}
\providecommand\HyperFirstAtBeginDocument{\AtBeginDocument}
\HyperFirstAtBeginDocument{\ifx\hyper@anchor\@undefined
\global\let\oldcontentsline\contentsline
\gdef\contentsline#1#2#3#4{\oldcontentsline{#1}{#2}{#3}}
\global\let\oldnewlabel\newlabel
\gdef\newlabel#1#2{\newlabelxx{#1}#2}
\gdef\newlabelxx#1#2#3#4#5#6{\oldnewlabel{#1}{{#2}{#3}}}
\AtEndDocument{\ifx\hyper@anchor\@undefined
\let\contentsline\oldcontentsline
\let\newlabel\oldnewlabel
\fi}
\fi}
\global\let\hyper@last\relax 
\gdef\HyperFirstAtBeginDocument#1{#1}
\providecommand\HyField@AuxAddToFields[1]{}
\providecommand\HyField@AuxAddToCoFields[2]{}
\@writefile{toc}{\beamer@endinputifotherversion {3.36pt}}
\@writefile{nav}{\beamer@endinputifotherversion {3.36pt}}
\@writefile{nav}{\headcommand {\slideentry {0}{0}{1}{1/1}{}{0}}}
\@writefile{nav}{\headcommand {\beamer@framepages {1}{1}}}
\@writefile{nav}{\headcommand {\slideentry {0}{0}{2}{2/2}{}{0}}}
\@writefile{nav}{\headcommand {\beamer@framepages {2}{2}}}
\@input{slide8.aux}
\@writefile{toc}{\beamer@sectionintoc {1}{Introducere}{3}{0}{1}}
\@writefile{nav}{\headcommand {\sectionentry {1}{Introducere}{3}{Introducere}{0}}}
\@writefile{nav}{\headcommand {\beamer@sectionpages {1}{2}}}
\@writefile{nav}{\headcommand {\beamer@subsectionpages {1}{2}}}
\@writefile{toc}{\beamer@subsectionintoc {1}{1}{Articolul}{3}{0}{1}}
\@writefile{nav}{\headcommand {\beamer@subsectionentry {0}{1}{1}{3}{Articolul}}\headcommand {\beamer@subsectionpages {3}{2}}}
\@input{slide1.aux}
\@writefile{toc}{\beamer@subsectionintoc {1}{2}{Ce este un senzor ?}{4}{0}{1}}
\@writefile{nav}{\headcommand {\beamer@subsectionentry {0}{1}{2}{4}{Ce este un senzor ?}}\headcommand {\beamer@subsectionpages {3}{3}}}
\@input{slide2.aux}
\@writefile{toc}{\beamer@subsectionintoc {1}{3}{Senzor}{5}{0}{1}}
\@writefile{nav}{\headcommand {\beamer@subsectionentry {0}{1}{3}{5}{Senzor}}\headcommand {\beamer@subsectionpages {4}{4}}}
\@input{slide3.aux}
\@input{slide4.aux}
\@writefile{toc}{\beamer@sectionintoc {2}{Algoritmi}{7}{0}{2}}
\@writefile{nav}{\headcommand {\sectionentry {2}{Algoritmi}{7}{Algoritmi}{0}}}
\@writefile{nav}{\headcommand {\beamer@sectionpages {3}{6}}}
\@writefile{nav}{\headcommand {\beamer@subsectionpages {5}{6}}}
\@writefile{toc}{\beamer@subsectionintoc {2}{1}{Prezentare algoritmi}{7}{0}{2}}
\@writefile{nav}{\headcommand {\beamer@subsectionentry {0}{2}{1}{7}{Prezentare algoritmi}}\headcommand {\beamer@subsectionpages {7}{6}}}
\@input{slide5.aux}
\@input{slide5.aux}
\@input{slide6.aux}
\@input{slide7.aux}
\@writefile{toc}{\beamer@sectionintoc {3}{Concluzii}{11}{0}{3}}
\@writefile{nav}{\headcommand {\sectionentry {3}{Concluzii}{11}{Concluzii}{0}}}
\@writefile{nav}{\headcommand {\beamer@sectionpages {7}{10}}}
\@writefile{nav}{\headcommand {\beamer@subsectionpages {7}{10}}}
\@input{endslide.aux}
\@writefile{nav}{\headcommand {\beamer@partpages {1}{12}}}
\@writefile{nav}{\headcommand {\beamer@subsectionpages {11}{12}}}
\@writefile{nav}{\headcommand {\beamer@sectionpages {11}{12}}}
\@writefile{nav}{\headcommand {\beamer@documentpages {12}}}
\@writefile{nav}{\headcommand {\def \inserttotalframenumber {12}}}
