\relax 
\providecommand\hyper@newdestlabel[2]{}
\bibcite{p1}{\hyperlink {beamerbibp1}{Smith, 2011}}
\@writefile{nav}{\headcommand {\slideentry {2}{1}{3}{15/15}{Hello world}{0}}}
\@writefile{nav}{\headcommand {\beamer@framepages {15}{15}}}
\@setckpt{slide10}{
\setcounter{page}{16}
\setcounter{equation}{0}
\setcounter{enumi}{0}
\setcounter{enumii}{0}
\setcounter{enumiii}{0}
\setcounter{enumiv}{0}
\setcounter{footnote}{0}
\setcounter{mpfootnote}{0}
\setcounter{beamerpauses}{1}
\setcounter{bookmark@seq@number}{6}
\setcounter{lecture}{0}
\setcounter{part}{0}
\setcounter{section}{2}
\setcounter{subsection}{1}
\setcounter{subsubsection}{0}
\setcounter{subsectionslide}{3}
\setcounter{framenumber}{15}
\setcounter{figure}{0}
\setcounter{table}{0}
\setcounter{parentequation}{0}
\setcounter{theorem}{0}
\setcounter{section@level}{0}
}
