/home/Hate/Programming/WSMT/proj3/xml-library/StateNameServer/interface/obj/Debug/.NETFramework,Version=v4.0.AssemblyAttribute.cs
/home/Hate/Programming/WSMT/proj3/bin/IStateName.dll.mdb
/home/Hate/Programming/WSMT/proj3/bin/IStateName.dll
/home/Hate/Programming/WSMT/proj3/xml-library/StateNameServer/interface/obj/Debug/IStateName.dll
/home/Hate/Programming/WSMT/proj3/xml-library/StateNameServer/interface/obj/Debug/IStateName.dll.mdb
